{
  "$schema": "../../node_modules/ng-packagr/ng-package.schema.json",
  "dest": "../../dist/ngp-carousel",
  "lib": {
    "entryFile": "src/public-api.ts"
  },
  "allowedNonPeerDependencies": [
    "css-element-queries"
  ]
}
